<svg width="47" height="45" viewBox="0 0 47 45" fill="none" xmlns="http://www.w3.org/2000/svg">
<path d="M23.5 0.5C20.2955 0.5 17.7919 1.65675 15.9893 3.97024C14.1868 6.28373 13.2855 9.24107 13.2855 12.8423C13.2633 17.3165 14.732 20.8631 17.6918 23.4821C18.0701 23.8314 18.2036 24.2788 18.0923 24.8244L17.3246 26.3958C17.0798 26.9196 16.7182 27.3289 16.2397 27.6235C15.7612 27.9182 14.7543 28.3383 13.2188 28.8839C13.152 28.9058 11.7444 29.3532 8.99609 30.2262C6.24775 31.0992 4.78456 31.5794 4.60653 31.6667C2.73722 32.4306 1.51326 33.2272 0.934659 34.0565C0.311553 35.4315 0 38.9127 0 44.5H47C47 38.9127 46.6884 35.4315 46.0653 34.0565C45.4867 33.2272 44.2628 32.4306 42.3935 31.6667C42.2154 31.5794 40.7523 31.0992 38.0039 30.2262C35.2556 29.3532 33.848 28.9058 33.7812 28.8839C32.2457 28.3383 31.2388 27.9182 30.7603 27.6235C30.2818 27.3289 29.9202 26.9196 29.6754 26.3958L28.9077 24.8244C28.7964 24.2788 28.9299 23.8314 29.3082 23.4821C32.268 20.8631 33.7367 17.3165 33.7145 12.8423C33.7145 9.24107 32.8132 6.28373 31.0107 3.97024C29.2081 1.65675 26.7045 0.5 23.5 0.5Z" fill="white"/>
</svg>
