<svg width="30" height="47" viewBox="0 0 30 47" fill="none" xmlns="http://www.w3.org/2000/svg">
<path fill-rule="evenodd" clip-rule="evenodd" d="M3.24324 0.5H26.7568C28.5456 0.5 30 1.97344 30 3.78571V43.2143C30 45.0266 28.5456 46.5 26.7568 46.5H3.24324C1.45439 46.5 0 45.0266 0 43.2143V3.78571C0 1.97344 1.45439 0.5 3.24324 0.5ZM12.973 37.567C12.973 38.7016 13.8801 39.6205 15 39.6205C16.1199 39.6205 17.027 38.7016 17.027 37.567C17.027 36.4324 16.1199 35.5134 15 35.5134C13.8801 35.5134 12.973 36.4324 12.973 37.567ZM24.0135 4.5H5.98649C4.61503 4.5 3.5 5.36484 3.5 6.42857V29.5714C3.5 30.6352 4.61503 31.5 5.98649 31.5H24.0135C25.385 31.5 26.5 30.6352 26.5 29.5714V6.42857C26.5 5.36484 25.385 4.5 24.0135 4.5Z" fill="white"/>
</svg>
